{
    "data": [
        {
            "id": 48772,
            "date": "2019-02-12T00:00:00.000Z",
            "home_team": {
                "id": 15,
                "abbreviation": "MEM",
                "city": "Memphis",
                "conference": "West",
                "division": "Southwest",
                "full_name": "Memphis Grizzlies",
                "name": "Grizzlies"
            },
            "home_team_score": 107,
            "period": 4,
            "postseason": false,
            "season": 2018,
            "status": "Final",
            "time": "     ",
            "visitor_team": {
                "id": 27,
                "abbreviation": "SAS",
                "city": "San Antonio",
                "conference": "West",
                "division": "Southwest",
                "full_name": "San Antonio Spurs",
                "name": "Spurs"
            },
            "visitor_team_score": 108
        }
     ],
     "meta": {
        "total_pages": 2,
        "current_page": 2,
        "next_page": 2,
        "per_page": 25,
        "total_count": 51256
    }
}
 